  
{
    "name": "first-network-${org}",
    "version": "1.0.0",
    "client": {
        "organization": "${ORG}",
        "connection": {
            "timeout": {
                "peer": {
                    "endorser": "300"
                }
            }
        }
    },
    "organizations": {
        "${ORG}": {
            "mspid": "${ORG}MSP",
            "peers": [
                "peer0.${org}.minpass.com",
                "peer1.${org}.minpass.com"
            ],
            "certificateAuthorities": [
                "ca.${org}.minpass.com"
            ]
        }
    },
    "peers": {
        "peer0.${org}.minpass.com": {
            "url": "grpcs://localhost:${P0PORT}",
            "tlsCACerts": {
                "pem": "${PEERPEM}"
            },
            "grpcOptions": {
                "ssl-target-name-override": "peer0.${org}.minpass.com",
                "hostnameOverride": "peer0.${org}.minpass.com"
            }
        },
	"peer1.${org}.minpass.com": {
            "url": "grpcs://localhost:${P0PORT1}",
            "tlsCACerts": {
                "pem": "${PEERPEM1}"
            },
            "grpcOptions": {
                "ssl-target-name-override": "peer1.${org}.minpass.com",
                "hostnameOverride": "peer1.${org}.minpass.com"
            }
        }

	
    },
    "certificateAuthorities": {
        "ca.${org}.minpass.com": {
            "url": "https://localhost:${CAPORT}",
            "caName": "ca.${org}.minpass.com",
            "tlsCACerts": {
                "pem": "${CAPEM}"
            },
            "httpOptions": {
                "verify": false
            }
        }
    }
}